Factors Impacting Spending Behavior of Different Generations
…
# Identify Missing Values ----------------------------------------------
trans_trim$UNITS[trans_trim$UNITS == "null"] <- NA
sum(is.na(trans_trim$UNITS))
#[1] 0
trans_trim$SPEND[trans_trim$SPEND == "null"] <- NA
sum(is.na(trans_trim$SPEND))
#[1] 0

hhld_trim[hhld_trim == "null"] <- NA

We wanted to take a quick look at the new data set before we continue to change it. That is shown below:

hhld_trim

## # A tibble: 5,000 x 7
##    HSHD_NUM L     AGE_RANGE MARITAL INCOME_RANGE HOMEOWNER HH_SIZE
##       <int> <chr> <chr>     <chr>   <chr>        <chr>     <chr>  
##  1      688 Y     75+       Unknown 35-49K       Homeowner <NA>   
##  2     2590 N     75+       Unknown 50-74K       Homeowner <NA>   
##  3     1171 Y     75+       Unknown 75-99K       Homeowner <NA>   
##  4     1531 Y     75+       Unknown 75-99K       Homeowner <NA>   
##  5      403 N     75+       Unknown UNDER 35K    Renter    <NA>   
##  6      283 Y     25-34     Unknown 50-74K       Homeowner <NA>   
##  7     3864 Y     25-34     Unknown 50-74K       Homeowner <NA>   
##  8     4899 Y     25-34     Unknown 50-74K       Homeowner <NA>   
##  9     1443 N     35-44     Unknown 150K+        Homeowner <NA>   
## 10     3598 Y     35-44     Unknown 35-49K       Unknown   <NA>   
## # ... with 4,990 more rows
…
